Text Modeling
…
titles <- c("Twenty Thousand Leagues under the Sea", 
            "The War of the Worlds",
            "Pride and Prejudice", 
            "Great Expectations")

books <- gutenberg_works(title %in% titles) %>%
  gutenberg_download(meta_fields = "title")

books
```

```
## # A tibble: 51,663 x 3
##    gutenberg_id text                                       title          
##           <int> <chr>                                      <chr>          
##  1           36 The War of the Worlds                      The War of the…
##  2           36 ""                                         The War of the…
##  3           36 by H. G. Wells [1898]                      The War of the…
##  4           36 ""                                         The War of the…
##  5           36 ""                                         The War of the…
##  6           36 "     But who shall dwell in these worlds… The War of the…
##  7           36 "     inhabited? .  .  .  Are we or they … The War of the…
##  8           36 "     World? .  .  .  And how are all thi… The War of the…
##  9           36 "          KEPLER (quoted in The Anatomy … The War of the…
## 10           36 ""                                         The War of the…
## # ... with 51,653 more rows
```
…
```r
by_chapter <- books %>%
  group_by(title) %>%
  mutate(chapter = cumsum(str_detect(text, 
                                     regex("^chapter ", 
                                           ignore_case = TRUE)))) %>%
  ungroup() %>%
  filter(chapter > 0) %>%
  unite(document, title, chapter)

by_chapter
```

```
## # A tibble: 51,602 x 3
##    gutenberg_id text                                      document        
##           <int> <chr>                                     <chr>           
##  1           36 CHAPTER ONE                               The War of the …
##  2           36 ""                                        The War of the …
##  3           36 THE EVE OF THE WAR                        The War of the …
##  4           36 ""                                        The War of the …
##  5           36 ""                                        The War of the …
##  6           36 No one would have believed in the last y… The War of the …
##  7           36 century that this world was being watche… The War of the …
##  8           36 intelligences greater than man's and yet… The War of the …
##  9           36 men busied themselves about their variou… The War of the …
## 10           36 scrutinised and studied, perhaps almost … The War of the …
## # ... with 51,592 more rows
```
…
## **Can we put them back together?**

```r
library(tidytext)

word_counts <- by_chapter %>%
  unnest_tokens(word, text) %>%
  anti_join(get_stopwords(source = "smart")) %>%
  count(document, word, sort = TRUE)

word_counts
```

```
## # A tibble: 111,650 x 3
##    document               word        n
##    <chr>                  <chr>   <int>
##  1 Great Expectations_57  joe        88
##  2 Great Expectations_7   joe        70
##  3 Pride and Prejudice_18 mr         66
##  4 Great Expectations_17  biddy      63
##  5 Great Expectations_27  joe        58
##  6 Great Expectations_38  estella    58
##  7 Great Expectations_2   joe        56
##  8 Great Expectations_23  pocket     53
##  9 Great Expectations_15  joe        50
## 10 Great Expectations_18  joe        50
## # ... with 111,640 more rows
```
…
---

## **Exploring the output of topic modeling**

.large[Time for tidying!]

```r
chapter_topics <- tidy(topic_model, matrix = "beta")

chapter_topics
```

```
## # A tibble: 73,440 x 3
##    topic term       beta
##    <int> <chr>     <dbl>
##  1     1 joe   8.69e-104
##  2     2 joe   3.03e-139
##  3     3 joe   1.21e-  2
##  4     4 joe   3.28e- 19
##  5     1 mr    1.90e-  2
##  6     2 mr    1.91e-  4
##  7     3 mr    1.22e-  2
##  8     4 mr    1.15e- 45
##  9     1 biddy 3.21e- 80
## 10     2 biddy 3.84e-149
## # ... with 73,430 more rows
```
…
## **Exploring the output of topic modeling**

```r
top_terms <- chapter_topics %>%
  group_by(topic) %>%
  top_n(10, beta) %>%
  ungroup() %>%
  arrange(topic, -beta)

top_terms
```

```
## # A tibble: 40 x 3
##    topic term         beta
##    <int> <chr>       <dbl>
##  1     1 mr        0.0190 
##  2     1 elizabeth 0.0141 
##  3     1 mrs       0.00886
##  4     1 darcy     0.00881
##  5     1 bennet    0.00694
##  6     1 miss      0.00674
##  7     1 jane      0.00652
##  8     1 bingley   0.00607
##  9     1 time      0.00493
## 10     1 good      0.00480
## # ... with 30 more rows
```
…
---

## **How are documents classified?**

```r
chapters_gamma <- tidy(topic_model, matrix = "gamma",
                       document_names = rownames(words_sparse))

chapters_gamma
```

```
## # A tibble: 772 x 3
##    document               topic    gamma
##    <chr>                  <int>    <dbl>
##  1 Great Expectations_57      1 0.000792
##  2 Great Expectations_7       1 0.00340 
##  3 Pride and Prejudice_18     1 1.000   
##  4 Great Expectations_17      1 0.0480  
##  5 Great Expectations_27      1 0.000367
##  6 Great Expectations_38      1 0.00110 
##  7 Great Expectations_2       1 0.000531
##  8 Great Expectations_23      1 0.432   
##  9 Great Expectations_15      1 0.000565
## 10 Great Expectations_18      1 0.000277
## # ... with 762 more rows
```

---

## **How are documents classified?**

```r
chapters_parsed <- chapters_gamma %>%
  separate(document, c("title", "chapter"), sep = "_", convert = TRUE)

chapters_parsed
```

```
## # A tibble: 772 x 4
##    title               chapter topic    gamma
##    <chr>                 <int> <int>    <dbl>
##  1 Great Expectations       57     1 0.000792
##  2 Great Expectations        7     1 0.00340 
##  3 Pride and Prejudice      18     1 1.000   
##  4 Great Expectations       17     1 0.0480  
##  5 Great Expectations       27     1 0.000367
##  6 Great Expectations       38     1 0.00110 
##  7 Great Expectations        2     1 0.000531
##  8 Great Expectations       23     1 0.432   
##  9 Great Expectations       15     1 0.000565
## 10 Great Expectations       18     1 0.000277
## # ... with 762 more rows
```
…
titles <- c("The War of the Worlds",
            "Pride and Prejudice")

books <- gutenberg_works(title %in% titles) %>%
  gutenberg_download(meta_fields = "title") %>%
  mutate(document = row_number())

books
```

```
## # A tibble: 19,504 x 4
##    gutenberg_id text                                title         document
##           <int> <chr>                               <chr>            <int>
##  1           36 The War of the Worlds               The War of t…        1
##  2           36 ""                                  The War of t…        2
##  3           36 by H. G. Wells [1898]               The War of t…        3
##  4           36 ""                                  The War of t…        4
##  5           36 ""                                  The War of t…        5
##  6           36 "     But who shall dwell in these… The War of t…        6
##  7           36 "     inhabited? .  .  .  Are we o… The War of t…        7
##  8           36 "     World? .  .  .  And how are … The War of t…        8
##  9           36 "          KEPLER (quoted in The A… The War of t…        9
## 10           36 ""                                  The War of t…       10
## # ... with 19,494 more rows
```
…
```r
library(tidytext)

tidy_books <- books %>%
  unnest_tokens(word, text) %>%
  group_by(word) %>%
  filter(n() > 10) %>%
  ungroup

tidy_books
```

```
## # A tibble: 159,707 x 4
##    gutenberg_id title                 document word 
##           <int> <chr>                    <int> <chr>
##  1           36 The War of the Worlds        1 the  
##  2           36 The War of the Worlds        1 war  
##  3           36 The War of the Worlds        1 of   
##  4           36 The War of the Worlds        1 the  
##  5           36 The War of the Worlds        3 by   
##  6           36 The War of the Worlds        6 but  
##  7           36 The War of the Worlds        6 who  
##  8           36 The War of the Worlds        6 shall
##  9           36 The War of the Worlds        6 in   
## 10           36 The War of the Worlds        6 these
## # ... with 159,697 more rows
```
…
## **Tidying our model**

```r
classifications <- tidy_books %>%
  inner_join(coefs, by = c("word" = "term")) %>%
  group_by(document) %>%
  summarize(Score = sum(estimate)) %>%
  mutate(Probability = plogis(Intercept + Score))

classifications
```

```
## # A tibble: 16,007 x 3
##    document  Score Probability
##       <int>  <dbl>       <dbl>
##  1        1 -2.41      0.101  
##  2        3  0.216     0.610  
##  3        6  1.86      0.890  
##  4        7 -1.05      0.305  
##  5        8 -1.29      0.258  
##  6        9 -0.535     0.424  
##  7       13 -0.252     0.495  
##  8       15 -5.66      0.00435
##  9       19  0.393     0.651  
## 10       21 -2.41      0.101  
## # ... with 15,997 more rows
```
…
---

## **ROC**

```r
roc %>%
  arrange(Probability)
```

```
## # A tibble: 16,007 x 8
##    document Score Probability title              Correct   TPR   FPR   FDR
##       <int> <dbl>       <dbl> <chr>              <lgl>   <dbl> <dbl> <dbl>
##  1     3963 -14.8 0.000000479 The War of the Wo… FALSE       1 1     0.337
##  2     4127 -13.3 0.00000204  The War of the Wo… FALSE       1 1.000 0.337
##  3     6431 -13.0 0.00000293  The War of the Wo… FALSE       1 1.000 0.337
##  4     2863 -12.7 0.00000374  The War of the Wo… FALSE       1 0.999 0.336
##  5     2570 -12.7 0.00000401  The War of the Wo… FALSE       1 0.999 0.336
##  6     2628 -12.4 0.00000513  The War of the Wo… FALSE       1 0.999 0.336
##  7     4177 -12.1 0.00000670  The War of the Wo… FALSE       1 0.999 0.336
##  8     6042 -12.1 0.00000700  The War of the Wo… FALSE       1 0.999 0.336
##  9     2704 -12.1 0.00000725  The War of the Wo… FALSE       1 0.999 0.336
## 10     1698 -11.9 0.00000849  The War of the Wo… FALSE       1 0.998 0.336
## # ... with 15,997 more rows
```
…
